G04 #@! TF.FileFunction,Copper,L1,Top,Signal*
%FSLAX46Y46*%
G04 Gerber Fmt 4.6, Leading zero omitted, Abs format (unit mm)*
G04 Created by KiCad (PCBNEW 4.0.6) date 07/26/17 09:00:15*
%MOMM*%
%LPD*%
G01*
G04 APERTURE LIST*
%ADD10C,0.200000*%
%ADD11R,3.800000X2.000000*%
%ADD12R,1.500000X2.000000*%
%ADD13C,2.200000*%
%ADD14C,4.000000*%
%ADD15O,2.300000X4.000000*%
%ADD16R,2.200000X4.000000*%
%ADD17R,4.000000X2.200000*%
%ADD18O,4.000000X2.200000*%
%ADD19R,2.200000X3.000000*%
%ADD20O,2.200000X3.000000*%
%ADD21C,1.500000*%
%ADD22O,3.000000X4.000000*%
%ADD23O,4.000000X4.000000*%
%ADD24O,2.200000X4.000000*%
%ADD25R,4.000000X4.000000*%
%ADD26R,2.200000X2.200000*%
%ADD27O,2.200000X2.200000*%
%ADD28R,2.000000X3.000000*%
%ADD29O,3.000000X3.000000*%
%ADD30C,6.000000*%
%ADD31C,1.500000*%
%ADD32C,1.000000*%
%ADD33C,0.600000*%
%ADD34C,0.254000*%
G04 APERTURE END LIST*
D10*
D11*
X35052000Y66954000D03*
D12*
X35052000Y73254000D03*
X32752000Y73254000D03*
X37352000Y73254000D03*
D13*
X62738000Y56896000D03*
X60198000Y56896000D03*
D14*
X42418000Y56896000D03*
X65278000Y72136000D03*
D15*
X55118000Y72136000D03*
X52578000Y72136000D03*
D16*
X42418000Y72136000D03*
D17*
X80264000Y86360000D03*
D18*
X80264000Y83566000D03*
D19*
X69850000Y80645000D03*
D20*
X67310000Y80645000D03*
X64770000Y80645000D03*
D21*
X62230000Y80645000D03*
X59690000Y80645000D03*
D20*
X57150000Y80645000D03*
X54610000Y80645000D03*
X52070000Y80645000D03*
D21*
X52070000Y88265000D03*
X54610000Y88265000D03*
X57150000Y88265000D03*
D20*
X59690000Y88265000D03*
X62230000Y88265000D03*
D21*
X64770000Y88265000D03*
X67310000Y88265000D03*
D22*
X69850000Y88265000D03*
D14*
X36576000Y52324000D03*
D23*
X51816000Y52324000D03*
D14*
X36576000Y47244000D03*
D23*
X51816000Y47244000D03*
D14*
X90678000Y41656000D03*
X90678000Y26416000D03*
D24*
X44958000Y41656000D03*
X42418000Y41656000D03*
D25*
X32258000Y41656000D03*
D14*
X32258000Y26416000D03*
D25*
X87884000Y50292000D03*
D14*
X83312000Y50292000D03*
X78740000Y50292000D03*
X74104500Y50355500D03*
D26*
X81788000Y66040000D03*
D27*
X84772500Y66103500D03*
X87503000Y66040000D03*
D25*
X95504000Y85852000D03*
D23*
X95504000Y75692000D03*
D26*
X84836000Y58483500D03*
D13*
X87820500Y58420000D03*
D25*
X88392000Y85852000D03*
D14*
X88392000Y75692000D03*
D28*
X47752000Y80264000D03*
D29*
X44704000Y80264000D03*
X41148000Y80264000D03*
X37592000Y80264000D03*
D30*
X27305000Y89154000D03*
X101600000Y30099000D03*
D31*
X95567500Y50292000D02*
X96012000Y49847500D01*
X32258000Y26416000D02*
X66040000Y26416000D01*
X83312000Y43688000D02*
X83312000Y50292000D01*
X66040000Y26416000D02*
X83312000Y43688000D01*
X84836000Y58483500D02*
X84836000Y66040000D01*
X84836000Y66040000D02*
X84772500Y66103500D01*
X83312000Y50292000D02*
X83312000Y56959500D01*
X83312000Y56959500D02*
X84836000Y58483500D01*
X84772500Y66103500D02*
X84772500Y68643500D01*
X72771000Y80645000D02*
X69850000Y80645000D01*
X84772500Y68643500D02*
X72771000Y80645000D01*
X35052000Y66954000D02*
X35052000Y56896000D01*
X36576000Y52324000D02*
X36576000Y56388000D01*
D32*
X36576000Y56388000D02*
X36576000Y56388000D01*
X36576000Y56388000D02*
X37084000Y56896000D01*
D31*
X42418000Y56896000D02*
X37084000Y56896000D01*
X37084000Y56896000D02*
X35052000Y56896000D01*
X35052000Y56896000D02*
X32004000Y56896000D01*
X32004000Y56896000D02*
X30988000Y56896000D01*
X30988000Y56896000D02*
X27432000Y53340000D01*
X27432000Y53340000D02*
X27432000Y31242000D01*
X27432000Y31242000D02*
X32258000Y26416000D01*
D32*
X32258000Y26416000D02*
X31496000Y26416000D01*
D31*
X36576000Y47244000D02*
X36576000Y52324000D01*
D32*
X32258000Y27432000D02*
X31496000Y27432000D01*
D31*
X52578000Y72136000D02*
X52578000Y75438000D01*
X54610000Y77470000D02*
X54610000Y80645000D01*
X52578000Y75438000D02*
X54610000Y77470000D01*
D32*
X54610000Y80645000D02*
X54610000Y80010000D01*
D31*
X55118000Y72136000D02*
X58928000Y72136000D01*
X67310000Y77470000D02*
X67310000Y80645000D01*
X66548000Y76708000D02*
X67310000Y77470000D01*
X63500000Y76708000D02*
X66548000Y76708000D01*
X58928000Y72136000D02*
X63500000Y76708000D01*
D32*
X87884000Y50292000D02*
X88392000Y50292000D01*
D31*
X32752000Y73254000D02*
X32752000Y75424000D01*
X32752000Y75424000D02*
X37592000Y80264000D01*
X80264000Y83566000D02*
X86106000Y83566000D01*
D32*
X86106000Y83566000D02*
X88392000Y85852000D01*
X64770000Y80645000D02*
X64770000Y83566000D01*
X64770000Y83566000D02*
X80264000Y83566000D01*
X88392000Y85852000D02*
X87376000Y85852000D01*
X80264000Y86360000D02*
X80772000Y86360000D01*
D31*
X80772000Y86360000D02*
X83820000Y89408000D01*
X91948000Y89408000D02*
X95504000Y85852000D01*
X83820000Y89408000D02*
X91948000Y89408000D01*
D32*
X57150000Y80645000D02*
X57150000Y83566000D01*
X76200000Y86360000D02*
X80264000Y86360000D01*
X75184000Y85344000D02*
X76200000Y86360000D01*
X58928000Y85344000D02*
X75184000Y85344000D01*
X57150000Y83566000D02*
X58928000Y85344000D01*
X95504000Y85852000D02*
X95504000Y86868000D01*
D33*
X57150000Y81280000D02*
X57150000Y80645000D01*
D31*
X42418000Y41656000D02*
X42418000Y37338000D01*
X78740000Y46736000D02*
X78740000Y50292000D01*
X69088000Y37084000D02*
X78740000Y46736000D01*
X42672000Y37084000D02*
X69088000Y37084000D01*
X42418000Y37338000D02*
X42672000Y37084000D01*
X60198000Y56896000D02*
X55880000Y56896000D01*
X45212000Y67564000D02*
X45212000Y79756000D01*
X55880000Y56896000D02*
X45212000Y67564000D01*
X45212000Y79756000D02*
X44704000Y80264000D01*
D32*
X60198000Y57658000D02*
X60198000Y56896000D01*
D31*
X51816000Y52324000D02*
X55626000Y52324000D01*
X55626000Y52324000D02*
X60198000Y56896000D01*
X42418000Y41656000D02*
X42418000Y43942000D01*
X42418000Y43942000D02*
X50800000Y52324000D01*
D32*
X50800000Y52324000D02*
X51816000Y52324000D01*
D31*
X74104500Y50355500D02*
X74104500Y53403500D01*
X70612000Y56896000D02*
X62738000Y56896000D01*
X74104500Y53403500D02*
X70612000Y56896000D01*
X47752000Y80264000D02*
X47752000Y76708000D01*
X62738000Y63754000D02*
X62738000Y56896000D01*
X62484000Y64008000D02*
X62738000Y63754000D01*
X54356000Y64008000D02*
X62484000Y64008000D01*
X49276000Y69088000D02*
X54356000Y64008000D01*
X49276000Y75184000D02*
X49276000Y69088000D01*
X47752000Y76708000D02*
X49276000Y75184000D01*
X51816000Y47244000D02*
X56896000Y47244000D01*
X62738000Y53086000D02*
X62738000Y56896000D01*
X56896000Y47244000D02*
X62738000Y53086000D01*
D32*
X44958000Y41656000D02*
X46228000Y41656000D01*
D31*
X46228000Y41656000D02*
X51816000Y47244000D01*
X65278000Y72136000D02*
X69088000Y72136000D01*
X75184000Y66040000D02*
X81788000Y66040000D01*
X69088000Y72136000D02*
X75184000Y66040000D01*
D34*
G36*
X104462000Y33073560D02*
X103940810Y33595660D01*
X102424513Y34225282D01*
X100782690Y34226715D01*
X99265296Y33599741D01*
X98103340Y32439810D01*
X97473718Y30923513D01*
X97472285Y29281690D01*
X98099259Y27764296D01*
X99259190Y26602340D01*
X100775487Y25972718D01*
X102417310Y25971285D01*
X103934704Y26598259D01*
X104462000Y27124636D01*
X104462000Y23554000D01*
X91939931Y23554000D01*
X92446989Y23763512D01*
X93327396Y24642384D01*
X93804456Y25791272D01*
X93805542Y27035270D01*
X93330488Y28184989D01*
X92451616Y29065396D01*
X91302728Y29542456D01*
X90058730Y29543542D01*
X88909011Y29068488D01*
X88028604Y28189616D01*
X87551544Y27040728D01*
X87550458Y25796730D01*
X88025512Y24647011D01*
X88904384Y23766604D01*
X89416391Y23554000D01*
X33519931Y23554000D01*
X34026989Y23763512D01*
X34803831Y24539000D01*
X66040000Y24539000D01*
X66758297Y24681878D01*
X67367239Y25088761D01*
X83315208Y41036730D01*
X87550458Y41036730D01*
X88025512Y39887011D01*
X88904384Y39006604D01*
X90053272Y38529544D01*
X91297270Y38528458D01*
X92446989Y39003512D01*
X93327396Y39882384D01*
X93804456Y41031272D01*
X93805542Y42275270D01*
X93330488Y43424989D01*
X92451616Y44305396D01*
X91302728Y44782456D01*
X90058730Y44783542D01*
X88909011Y44308488D01*
X88028604Y43429616D01*
X87551544Y42280728D01*
X87550458Y41036730D01*
X83315208Y41036730D01*
X84639240Y42360761D01*
X84937048Y42806463D01*
X85046122Y42969703D01*
X85189000Y43688000D01*
X85189000Y47747335D01*
X85359969Y47918006D01*
X85524301Y47753673D01*
X85757690Y47657000D01*
X87252250Y47657000D01*
X87411000Y47815750D01*
X87411000Y49819000D01*
X88357000Y49819000D01*
X88357000Y47815750D01*
X88515750Y47657000D01*
X90010310Y47657000D01*
X90243699Y47753673D01*
X90422327Y47932302D01*
X90519000Y48165691D01*
X90519000Y49660250D01*
X90360250Y49819000D01*
X88357000Y49819000D01*
X87411000Y49819000D01*
X87391000Y49819000D01*
X87391000Y50292000D01*
X93690501Y50292000D01*
X93833378Y49573703D01*
X94240261Y48964761D01*
X94684761Y48520261D01*
X95293703Y48113378D01*
X96012000Y47970501D01*
X96730297Y48113378D01*
X97339239Y48520261D01*
X97746122Y49129203D01*
X97888999Y49847500D01*
X97746122Y50565797D01*
X97339239Y51174739D01*
X96894739Y51619239D01*
X96285797Y52026122D01*
X95567500Y52168999D01*
X94849203Y52026122D01*
X94240261Y51619239D01*
X93833378Y51010297D01*
X93690501Y50292000D01*
X87391000Y50292000D01*
X87391000Y50765000D01*
X87411000Y50765000D01*
X87411000Y52768250D01*
X88357000Y52768250D01*
X88357000Y50765000D01*
X90360250Y50765000D01*
X90519000Y50923750D01*
X90519000Y52418309D01*
X90422327Y52651698D01*
X90243699Y52830327D01*
X90010310Y52927000D01*
X88515750Y52927000D01*
X88357000Y52768250D01*
X87411000Y52768250D01*
X87252250Y52927000D01*
X85757690Y52927000D01*
X85524301Y52830327D01*
X85360254Y52666279D01*
X85189000Y52837831D01*
X85189000Y56182022D01*
X85241399Y56234421D01*
X85936000Y56234421D01*
X86353641Y56313006D01*
X86737219Y56559831D01*
X86970123Y56900697D01*
X87066582Y56997156D01*
X87201237Y56762942D01*
X87882504Y56652097D01*
X88439763Y56762942D01*
X88574419Y56997158D01*
X87820500Y57751077D01*
X87806358Y57736934D01*
X87137435Y58405857D01*
X87151577Y58420000D01*
X88489423Y58420000D01*
X89243342Y57666081D01*
X89477558Y57800737D01*
X89588403Y58482004D01*
X89477558Y59039263D01*
X89243342Y59173919D01*
X88489423Y58420000D01*
X87151577Y58420000D01*
X87137435Y58434142D01*
X87806358Y59103065D01*
X87820500Y59088923D01*
X88574419Y59842842D01*
X88439763Y60077058D01*
X87758496Y60187903D01*
X87201237Y60077058D01*
X87066582Y59842844D01*
X87029256Y59880170D01*
X87006494Y60001141D01*
X86759669Y60384719D01*
X86713000Y60416607D01*
X86713000Y64506480D01*
X86774690Y64465265D01*
X87030000Y64536393D01*
X87030000Y65567000D01*
X87976000Y65567000D01*
X87976000Y64536393D01*
X88231310Y64465265D01*
X88679180Y64764488D01*
X89077766Y65311685D01*
X89013562Y65567000D01*
X87976000Y65567000D01*
X87030000Y65567000D01*
X87010000Y65567000D01*
X87010000Y66513000D01*
X87030000Y66513000D01*
X87030000Y67543607D01*
X87976000Y67543607D01*
X87976000Y66513000D01*
X89013562Y66513000D01*
X89077766Y66768315D01*
X88679180Y67315512D01*
X88231310Y67614735D01*
X87976000Y67543607D01*
X87030000Y67543607D01*
X86774690Y67614735D01*
X86649500Y67531095D01*
X86649500Y68643500D01*
X86506622Y69361797D01*
X86099739Y69970739D01*
X82468845Y73601633D01*
X86970556Y73601633D01*
X87220174Y73274405D01*
X88234547Y73009995D01*
X89272892Y73153896D01*
X89563826Y73274405D01*
X89813444Y73601633D01*
X88392000Y75023077D01*
X86970556Y73601633D01*
X82468845Y73601633D01*
X80221025Y75849453D01*
X85709995Y75849453D01*
X85853896Y74811108D01*
X85974405Y74520174D01*
X86301633Y74270556D01*
X87723077Y75692000D01*
X89060923Y75692000D01*
X90482367Y74270556D01*
X90809595Y74520174D01*
X90887569Y74819311D01*
X93017688Y74819311D01*
X93540911Y73934270D01*
X94362996Y73316828D01*
X94631314Y73205709D01*
X95031000Y73261345D01*
X95031000Y75219000D01*
X95977000Y75219000D01*
X95977000Y73261345D01*
X96376686Y73205709D01*
X96645004Y73316828D01*
X97467089Y73934270D01*
X97990312Y74819311D01*
X97937470Y75219000D01*
X95977000Y75219000D01*
X95031000Y75219000D01*
X93070530Y75219000D01*
X93017688Y74819311D01*
X90887569Y74819311D01*
X91074005Y75534547D01*
X90931241Y76564689D01*
X93017688Y76564689D01*
X93070530Y76165000D01*
X95031000Y76165000D01*
X95031000Y78122655D01*
X95977000Y78122655D01*
X95977000Y76165000D01*
X97937470Y76165000D01*
X97990312Y76564689D01*
X97467089Y77449730D01*
X96645004Y78067172D01*
X96376686Y78178291D01*
X95977000Y78122655D01*
X95031000Y78122655D01*
X94631314Y78178291D01*
X94362996Y78067172D01*
X93540911Y77449730D01*
X93017688Y76564689D01*
X90931241Y76564689D01*
X90930104Y76572892D01*
X90809595Y76863826D01*
X90482367Y77113444D01*
X89060923Y75692000D01*
X87723077Y75692000D01*
X86301633Y77113444D01*
X85974405Y76863826D01*
X85709995Y75849453D01*
X80221025Y75849453D01*
X78288111Y77782367D01*
X86970556Y77782367D01*
X88392000Y76360923D01*
X89813444Y77782367D01*
X89563826Y78109595D01*
X88549453Y78374005D01*
X87511108Y78230104D01*
X87220174Y78109595D01*
X86970556Y77782367D01*
X78288111Y77782367D01*
X74131478Y81939000D01*
X77806243Y81939000D01*
X78450502Y81508520D01*
X79302738Y81339000D01*
X81225262Y81339000D01*
X82077498Y81508520D01*
X82347605Y81689000D01*
X86106000Y81689000D01*
X86824297Y81831878D01*
X87433239Y82238761D01*
X87743382Y82702921D01*
X90392000Y82702921D01*
X90809641Y82781506D01*
X91193219Y83028331D01*
X91450548Y83404944D01*
X91541079Y83852000D01*
X91541079Y87160443D01*
X92354921Y86346601D01*
X92354921Y83852000D01*
X92433506Y83434359D01*
X92680331Y83050781D01*
X93056944Y82793452D01*
X93504000Y82702921D01*
X97504000Y82702921D01*
X97921641Y82781506D01*
X98305219Y83028331D01*
X98562548Y83404944D01*
X98653079Y83852000D01*
X98653079Y87852000D01*
X98574494Y88269641D01*
X98327669Y88653219D01*
X97951056Y88910548D01*
X97504000Y89001079D01*
X95009399Y89001079D01*
X93275239Y90735239D01*
X92666297Y91142122D01*
X91948000Y91285000D01*
X83820000Y91285000D01*
X83101703Y91142122D01*
X82492761Y90735239D01*
X80366601Y88609079D01*
X78264000Y88609079D01*
X77846359Y88530494D01*
X77462781Y88283669D01*
X77260075Y87987000D01*
X76200000Y87987000D01*
X75577374Y87863152D01*
X75049537Y87510463D01*
X74510074Y86971000D01*
X72331250Y86971000D01*
X72477000Y87703738D01*
X72477000Y88826262D01*
X72277032Y89831571D01*
X71707570Y90683832D01*
X70855309Y91253294D01*
X69850000Y91453262D01*
X68844691Y91253294D01*
X67992430Y90683832D01*
X67630204Y90141722D01*
X66938280Y90142325D01*
X66248154Y89857171D01*
X66040100Y89649480D01*
X65834624Y89855316D01*
X65144996Y90141674D01*
X64398280Y90142325D01*
X63708154Y89857171D01*
X63570719Y89719976D01*
X63184886Y90103483D01*
X62958310Y90239735D01*
X62703000Y90168607D01*
X62703000Y88738000D01*
X62723000Y88738000D01*
X62723000Y87792000D01*
X62703000Y87792000D01*
X62703000Y87772000D01*
X61757000Y87772000D01*
X61757000Y87792000D01*
X60163000Y87792000D01*
X60163000Y87772000D01*
X59217000Y87772000D01*
X59217000Y87792000D01*
X59197000Y87792000D01*
X59197000Y88738000D01*
X59217000Y88738000D01*
X59217000Y90168607D01*
X60163000Y90168607D01*
X60163000Y88738000D01*
X61757000Y88738000D01*
X61757000Y90168607D01*
X61501690Y90239735D01*
X61275114Y90103483D01*
X60960000Y89790268D01*
X60644886Y90103483D01*
X60418310Y90239735D01*
X60163000Y90168607D01*
X59217000Y90168607D01*
X58961690Y90239735D01*
X58735114Y90103483D01*
X58349505Y89720199D01*
X58214624Y89855316D01*
X57524996Y90141674D01*
X56778280Y90142325D01*
X56088154Y89857171D01*
X55880100Y89649480D01*
X55674624Y89855316D01*
X54984996Y90141674D01*
X54238280Y90142325D01*
X53548154Y89857171D01*
X53340100Y89649480D01*
X53134624Y89855316D01*
X52444996Y90141674D01*
X51698280Y90142325D01*
X51008154Y89857171D01*
X50479684Y89329624D01*
X50193326Y88639996D01*
X50192675Y87893280D01*
X50477829Y87203154D01*
X51005376Y86674684D01*
X51695004Y86388326D01*
X52441720Y86387675D01*
X53131846Y86672829D01*
X53339900Y86880520D01*
X53545376Y86674684D01*
X54235004Y86388326D01*
X54981720Y86387675D01*
X55671846Y86672829D01*
X55879900Y86880520D01*
X56085376Y86674684D01*
X56775004Y86388326D01*
X57521720Y86387675D01*
X57775685Y86492611D01*
X55999537Y84716463D01*
X55646848Y84188626D01*
X55523000Y83566000D01*
X55523000Y83113345D01*
X55462236Y83153946D01*
X54610000Y83323466D01*
X53757764Y83153946D01*
X53340000Y82874805D01*
X52922236Y83153946D01*
X52070000Y83323466D01*
X51217764Y83153946D01*
X50495273Y82671193D01*
X50012520Y81948702D01*
X49901079Y81388449D01*
X49901079Y81764000D01*
X49822494Y82181641D01*
X49575669Y82565219D01*
X49199056Y82822548D01*
X48752000Y82913079D01*
X46752000Y82913079D01*
X46334359Y82834494D01*
X45950781Y82587669D01*
X45947724Y82583195D01*
X45709309Y82742498D01*
X44704000Y82942466D01*
X43698691Y82742498D01*
X42846430Y82173036D01*
X42601400Y81806322D01*
X41989086Y82226373D01*
X41940865Y82246319D01*
X41621000Y82182811D01*
X41621000Y80737000D01*
X41641000Y80737000D01*
X41641000Y79791000D01*
X41621000Y79791000D01*
X41621000Y78345189D01*
X41940865Y78281681D01*
X41989086Y78301627D01*
X42601400Y78721678D01*
X42846430Y78354964D01*
X43335000Y78028512D01*
X43335000Y74771000D01*
X43049750Y74771000D01*
X42891000Y74612250D01*
X42891000Y72609000D01*
X42911000Y72609000D01*
X42911000Y71663000D01*
X42891000Y71663000D01*
X42891000Y69659750D01*
X43049750Y69501000D01*
X43335000Y69501000D01*
X43335000Y67564000D01*
X43465212Y66909378D01*
X43477878Y66845703D01*
X43884761Y66236761D01*
X54552760Y55568761D01*
X55066669Y55225378D01*
X55161703Y55161878D01*
X55701940Y55054418D01*
X54848522Y54201000D01*
X54311639Y54201000D01*
X54088385Y54535123D01*
X53073913Y55212971D01*
X51877262Y55451000D01*
X51754738Y55451000D01*
X50558087Y55212971D01*
X49543615Y54535123D01*
X48865767Y53520651D01*
X48747474Y52925952D01*
X41090761Y45269239D01*
X40683878Y44660297D01*
X40541000Y43942000D01*
X40541000Y43739605D01*
X40360520Y43469498D01*
X40191000Y42617262D01*
X40191000Y40694738D01*
X40360520Y39842502D01*
X40541000Y39572395D01*
X40541000Y37338000D01*
X40591524Y37084000D01*
X40683878Y36619703D01*
X41090761Y36010761D01*
X41344760Y35756761D01*
X41953703Y35349878D01*
X42672000Y35207000D01*
X69088000Y35207000D01*
X69806297Y35349878D01*
X70415239Y35756761D01*
X80067239Y45408760D01*
X80474122Y46017703D01*
X80593781Y46619272D01*
X80617000Y46736000D01*
X80617000Y47747335D01*
X81026131Y48155752D01*
X81435000Y47746169D01*
X81435000Y44465479D01*
X65262522Y28293000D01*
X34802665Y28293000D01*
X34031616Y29065396D01*
X32882728Y29542456D01*
X31785064Y29543414D01*
X29309000Y32019478D01*
X29309000Y41024250D01*
X29623000Y41024250D01*
X29623000Y39529690D01*
X29719673Y39296301D01*
X29898302Y39117673D01*
X30131691Y39021000D01*
X31626250Y39021000D01*
X31785000Y39179750D01*
X31785000Y41183000D01*
X32731000Y41183000D01*
X32731000Y39179750D01*
X32889750Y39021000D01*
X34384309Y39021000D01*
X34617698Y39117673D01*
X34796327Y39296301D01*
X34893000Y39529690D01*
X34893000Y41024250D01*
X34734250Y41183000D01*
X32731000Y41183000D01*
X31785000Y41183000D01*
X29781750Y41183000D01*
X29623000Y41024250D01*
X29309000Y41024250D01*
X29309000Y43782310D01*
X29623000Y43782310D01*
X29623000Y42287750D01*
X29781750Y42129000D01*
X31785000Y42129000D01*
X31785000Y44132250D01*
X32731000Y44132250D01*
X32731000Y42129000D01*
X34734250Y42129000D01*
X34893000Y42287750D01*
X34893000Y43782310D01*
X34796327Y44015699D01*
X34617698Y44194327D01*
X34384309Y44291000D01*
X32889750Y44291000D01*
X32731000Y44132250D01*
X31785000Y44132250D01*
X31626250Y44291000D01*
X30131691Y44291000D01*
X29898302Y44194327D01*
X29719673Y44015699D01*
X29623000Y43782310D01*
X29309000Y43782310D01*
X29309000Y52562522D01*
X31765479Y55019000D01*
X34699000Y55019000D01*
X34699000Y54868665D01*
X33926604Y54097616D01*
X33449544Y52948728D01*
X33448458Y51704730D01*
X33923512Y50555011D01*
X34693752Y49783426D01*
X33926604Y49017616D01*
X33449544Y47868728D01*
X33448458Y46624730D01*
X33923512Y45475011D01*
X34802384Y44594604D01*
X35951272Y44117544D01*
X37195270Y44116458D01*
X38344989Y44591512D01*
X39225396Y45470384D01*
X39702456Y46619272D01*
X39703542Y47863270D01*
X39228488Y49012989D01*
X38458248Y49784574D01*
X39225396Y50550384D01*
X39702456Y51699272D01*
X39703542Y52943270D01*
X39228488Y54092989D01*
X38453000Y54869831D01*
X38453000Y55019000D01*
X39873335Y55019000D01*
X40644384Y54246604D01*
X41793272Y53769544D01*
X43037270Y53768458D01*
X44186989Y54243512D01*
X45067396Y55122384D01*
X45544456Y56271272D01*
X45545542Y57515270D01*
X45070488Y58664989D01*
X44191616Y59545396D01*
X43042728Y60022456D01*
X41798730Y60023542D01*
X40649011Y59548488D01*
X39872169Y58773000D01*
X36929000Y58773000D01*
X36929000Y64804921D01*
X36952000Y64804921D01*
X37369641Y64883506D01*
X37753219Y65130331D01*
X38010548Y65506944D01*
X38101079Y65954000D01*
X38101079Y67954000D01*
X38022494Y68371641D01*
X37775669Y68755219D01*
X37399056Y69012548D01*
X36952000Y69103079D01*
X33152000Y69103079D01*
X32734359Y69024494D01*
X32350781Y68777669D01*
X32093452Y68401056D01*
X32002921Y67954000D01*
X32002921Y65954000D01*
X32081506Y65536359D01*
X32328331Y65152781D01*
X32704944Y64895452D01*
X33152000Y64804921D01*
X33175000Y64804921D01*
X33175000Y58773000D01*
X30988000Y58773000D01*
X30269703Y58630122D01*
X29660760Y58223239D01*
X26104761Y54667239D01*
X25697878Y54058297D01*
X25555000Y53340000D01*
X25555000Y31242000D01*
X25618351Y30923513D01*
X25697878Y30523703D01*
X26104761Y29914761D01*
X29131411Y26888111D01*
X29130458Y25796730D01*
X29605512Y24647011D01*
X30484384Y23766604D01*
X30996391Y23554000D01*
X24570000Y23554000D01*
X24570000Y74254000D01*
X30852921Y74254000D01*
X30852921Y72254000D01*
X30931506Y71836359D01*
X31178331Y71452781D01*
X31554944Y71195452D01*
X32002000Y71104921D01*
X33502000Y71104921D01*
X33916683Y71182949D01*
X34302000Y71104921D01*
X35802000Y71104921D01*
X36219641Y71183506D01*
X36603219Y71430331D01*
X36653725Y71504250D01*
X40683000Y71504250D01*
X40683000Y70009690D01*
X40779673Y69776301D01*
X40958302Y69597673D01*
X41191691Y69501000D01*
X41786250Y69501000D01*
X41945000Y69659750D01*
X41945000Y71663000D01*
X40841750Y71663000D01*
X40683000Y71504250D01*
X36653725Y71504250D01*
X36732131Y71619000D01*
X36818250Y71619000D01*
X36977000Y71777750D01*
X36977000Y72781000D01*
X37727000Y72781000D01*
X37727000Y71777750D01*
X37885750Y71619000D01*
X38228310Y71619000D01*
X38461699Y71715673D01*
X38640327Y71894302D01*
X38737000Y72127691D01*
X38737000Y72622250D01*
X38578250Y72781000D01*
X37727000Y72781000D01*
X36977000Y72781000D01*
X36951079Y72781000D01*
X36951079Y73727000D01*
X36977000Y73727000D01*
X36977000Y74730250D01*
X37727000Y74730250D01*
X37727000Y73727000D01*
X38578250Y73727000D01*
X38737000Y73885750D01*
X38737000Y74262310D01*
X40683000Y74262310D01*
X40683000Y72767750D01*
X40841750Y72609000D01*
X41945000Y72609000D01*
X41945000Y74612250D01*
X41786250Y74771000D01*
X41191691Y74771000D01*
X40958302Y74674327D01*
X40779673Y74495699D01*
X40683000Y74262310D01*
X38737000Y74262310D01*
X38737000Y74380309D01*
X38640327Y74613698D01*
X38461699Y74792327D01*
X38228310Y74889000D01*
X37885750Y74889000D01*
X37727000Y74730250D01*
X36977000Y74730250D01*
X36818250Y74889000D01*
X36732628Y74889000D01*
X36625669Y75055219D01*
X36249056Y75312548D01*
X35802000Y75403079D01*
X35385557Y75403079D01*
X37571992Y77589514D01*
X37592000Y77585534D01*
X38597309Y77785502D01*
X39449570Y78354964D01*
X39694600Y78721678D01*
X40306914Y78301627D01*
X40355135Y78281681D01*
X40675000Y78345189D01*
X40675000Y79791000D01*
X40655000Y79791000D01*
X40655000Y80737000D01*
X40675000Y80737000D01*
X40675000Y82182811D01*
X40355135Y82246319D01*
X40306914Y82226373D01*
X39694600Y81806322D01*
X39449570Y82173036D01*
X38597309Y82742498D01*
X37592000Y82942466D01*
X36586691Y82742498D01*
X35734430Y82173036D01*
X35164968Y81320775D01*
X34965000Y80315466D01*
X34965000Y80291479D01*
X31424761Y76751239D01*
X31017878Y76142297D01*
X30875000Y75424000D01*
X30875000Y74363029D01*
X30852921Y74254000D01*
X24570000Y74254000D01*
X24570000Y86052218D01*
X24964190Y85657340D01*
X26480487Y85027718D01*
X28122310Y85026285D01*
X29639704Y85653259D01*
X30801660Y86813190D01*
X31431282Y88329487D01*
X31432715Y89971310D01*
X30805741Y91488704D01*
X29645810Y92650660D01*
X28129513Y93280282D01*
X26487690Y93281715D01*
X24970296Y92654741D01*
X24570000Y92255143D01*
X24570000Y93286000D01*
X104462000Y93286000D01*
X104462000Y33073560D01*
X104462000Y33073560D01*
G37*
X104462000Y33073560D02*
X103940810Y33595660D01*
X102424513Y34225282D01*
X100782690Y34226715D01*
X99265296Y33599741D01*
X98103340Y32439810D01*
X97473718Y30923513D01*
X97472285Y29281690D01*
X98099259Y27764296D01*
X99259190Y26602340D01*
X100775487Y25972718D01*
X102417310Y25971285D01*
X103934704Y26598259D01*
X104462000Y27124636D01*
X104462000Y23554000D01*
X91939931Y23554000D01*
X92446989Y23763512D01*
X93327396Y24642384D01*
X93804456Y25791272D01*
X93805542Y27035270D01*
X93330488Y28184989D01*
X92451616Y29065396D01*
X91302728Y29542456D01*
X90058730Y29543542D01*
X88909011Y29068488D01*
X88028604Y28189616D01*
X87551544Y27040728D01*
X87550458Y25796730D01*
X88025512Y24647011D01*
X88904384Y23766604D01*
X89416391Y23554000D01*
X33519931Y23554000D01*
X34026989Y23763512D01*
X34803831Y24539000D01*
X66040000Y24539000D01*
X66758297Y24681878D01*
X67367239Y25088761D01*
X83315208Y41036730D01*
X87550458Y41036730D01*
X88025512Y39887011D01*
X88904384Y39006604D01*
X90053272Y38529544D01*
X91297270Y38528458D01*
X92446989Y39003512D01*
X93327396Y39882384D01*
X93804456Y41031272D01*
X93805542Y42275270D01*
X93330488Y43424989D01*
X92451616Y44305396D01*
X91302728Y44782456D01*
X90058730Y44783542D01*
X88909011Y44308488D01*
X88028604Y43429616D01*
X87551544Y42280728D01*
X87550458Y41036730D01*
X83315208Y41036730D01*
X84639240Y42360761D01*
X84937048Y42806463D01*
X85046122Y42969703D01*
X85189000Y43688000D01*
X85189000Y47747335D01*
X85359969Y47918006D01*
X85524301Y47753673D01*
X85757690Y47657000D01*
X87252250Y47657000D01*
X87411000Y47815750D01*
X87411000Y49819000D01*
X88357000Y49819000D01*
X88357000Y47815750D01*
X88515750Y47657000D01*
X90010310Y47657000D01*
X90243699Y47753673D01*
X90422327Y47932302D01*
X90519000Y48165691D01*
X90519000Y49660250D01*
X90360250Y49819000D01*
X88357000Y49819000D01*
X87411000Y49819000D01*
X87391000Y49819000D01*
X87391000Y50292000D01*
X93690501Y50292000D01*
X93833378Y49573703D01*
X94240261Y48964761D01*
X94684761Y48520261D01*
X95293703Y48113378D01*
X96012000Y47970501D01*
X96730297Y48113378D01*
X97339239Y48520261D01*
X97746122Y49129203D01*
X97888999Y49847500D01*
X97746122Y50565797D01*
X97339239Y51174739D01*
X96894739Y51619239D01*
X96285797Y52026122D01*
X95567500Y52168999D01*
X94849203Y52026122D01*
X94240261Y51619239D01*
X93833378Y51010297D01*
X93690501Y50292000D01*
X87391000Y50292000D01*
X87391000Y50765000D01*
X87411000Y50765000D01*
X87411000Y52768250D01*
X88357000Y52768250D01*
X88357000Y50765000D01*
X90360250Y50765000D01*
X90519000Y50923750D01*
X90519000Y52418309D01*
X90422327Y52651698D01*
X90243699Y52830327D01*
X90010310Y52927000D01*
X88515750Y52927000D01*
X88357000Y52768250D01*
X87411000Y52768250D01*
X87252250Y52927000D01*
X85757690Y52927000D01*
X85524301Y52830327D01*
X85360254Y52666279D01*
X85189000Y52837831D01*
X85189000Y56182022D01*
X85241399Y56234421D01*
X85936000Y56234421D01*
X86353641Y56313006D01*
X86737219Y56559831D01*
X86970123Y56900697D01*
X87066582Y56997156D01*
X87201237Y56762942D01*
X87882504Y56652097D01*
X88439763Y56762942D01*
X88574419Y56997158D01*
X87820500Y57751077D01*
X87806358Y57736934D01*
X87137435Y58405857D01*
X87151577Y58420000D01*
X88489423Y58420000D01*
X89243342Y57666081D01*
X89477558Y57800737D01*
X89588403Y58482004D01*
X89477558Y59039263D01*
X89243342Y59173919D01*
X88489423Y58420000D01*
X87151577Y58420000D01*
X87137435Y58434142D01*
X87806358Y59103065D01*
X87820500Y59088923D01*
X88574419Y59842842D01*
X88439763Y60077058D01*
X87758496Y60187903D01*
X87201237Y60077058D01*
X87066582Y59842844D01*
X87029256Y59880170D01*
X87006494Y60001141D01*
X86759669Y60384719D01*
X86713000Y60416607D01*
X86713000Y64506480D01*
X86774690Y64465265D01*
X87030000Y64536393D01*
X87030000Y65567000D01*
X87976000Y65567000D01*
X87976000Y64536393D01*
X88231310Y64465265D01*
X88679180Y64764488D01*
X89077766Y65311685D01*
X89013562Y65567000D01*
X87976000Y65567000D01*
X87030000Y65567000D01*
X87010000Y65567000D01*
X87010000Y66513000D01*
X87030000Y66513000D01*
X87030000Y67543607D01*
X87976000Y67543607D01*
X87976000Y66513000D01*
X89013562Y66513000D01*
X89077766Y66768315D01*
X88679180Y67315512D01*
X88231310Y67614735D01*
X87976000Y67543607D01*
X87030000Y67543607D01*
X86774690Y67614735D01*
X86649500Y67531095D01*
X86649500Y68643500D01*
X86506622Y69361797D01*
X86099739Y69970739D01*
X82468845Y73601633D01*
X86970556Y73601633D01*
X87220174Y73274405D01*
X88234547Y73009995D01*
X89272892Y73153896D01*
X89563826Y73274405D01*
X89813444Y73601633D01*
X88392000Y75023077D01*
X86970556Y73601633D01*
X82468845Y73601633D01*
X80221025Y75849453D01*
X85709995Y75849453D01*
X85853896Y74811108D01*
X85974405Y74520174D01*
X86301633Y74270556D01*
X87723077Y75692000D01*
X89060923Y75692000D01*
X90482367Y74270556D01*
X90809595Y74520174D01*
X90887569Y74819311D01*
X93017688Y74819311D01*
X93540911Y73934270D01*
X94362996Y73316828D01*
X94631314Y73205709D01*
X95031000Y73261345D01*
X95031000Y75219000D01*
X95977000Y75219000D01*
X95977000Y73261345D01*
X96376686Y73205709D01*
X96645004Y73316828D01*
X97467089Y73934270D01*
X97990312Y74819311D01*
X97937470Y75219000D01*
X95977000Y75219000D01*
X95031000Y75219000D01*
X93070530Y75219000D01*
X93017688Y74819311D01*
X90887569Y74819311D01*
X91074005Y75534547D01*
X90931241Y76564689D01*
X93017688Y76564689D01*
X93070530Y76165000D01*
X95031000Y76165000D01*
X95031000Y78122655D01*
X95977000Y78122655D01*
X95977000Y76165000D01*
X97937470Y76165000D01*
X97990312Y76564689D01*
X97467089Y77449730D01*
X96645004Y78067172D01*
X96376686Y78178291D01*
X95977000Y78122655D01*
X95031000Y78122655D01*
X94631314Y78178291D01*
X94362996Y78067172D01*
X93540911Y77449730D01*
X93017688Y76564689D01*
X90931241Y76564689D01*
X90930104Y76572892D01*
X90809595Y76863826D01*
X90482367Y77113444D01*
X89060923Y75692000D01*
X87723077Y75692000D01*
X86301633Y77113444D01*
X85974405Y76863826D01*
X85709995Y75849453D01*
X80221025Y75849453D01*
X78288111Y77782367D01*
X86970556Y77782367D01*
X88392000Y76360923D01*
X89813444Y77782367D01*
X89563826Y78109595D01*
X88549453Y78374005D01*
X87511108Y78230104D01*
X87220174Y78109595D01*
X86970556Y77782367D01*
X78288111Y77782367D01*
X74131478Y81939000D01*
X77806243Y81939000D01*
X78450502Y81508520D01*
X79302738Y81339000D01*
X81225262Y81339000D01*
X82077498Y81508520D01*
X82347605Y81689000D01*
X86106000Y81689000D01*
X86824297Y81831878D01*
X87433239Y82238761D01*
X87743382Y82702921D01*
X90392000Y82702921D01*
X90809641Y82781506D01*
X91193219Y83028331D01*
X91450548Y83404944D01*
X91541079Y83852000D01*
X91541079Y87160443D01*
X92354921Y86346601D01*
X92354921Y83852000D01*
X92433506Y83434359D01*
X92680331Y83050781D01*
X93056944Y82793452D01*
X93504000Y82702921D01*
X97504000Y82702921D01*
X97921641Y82781506D01*
X98305219Y83028331D01*
X98562548Y83404944D01*
X98653079Y83852000D01*
X98653079Y87852000D01*
X98574494Y88269641D01*
X98327669Y88653219D01*
X97951056Y88910548D01*
X97504000Y89001079D01*
X95009399Y89001079D01*
X93275239Y90735239D01*
X92666297Y91142122D01*
X91948000Y91285000D01*
X83820000Y91285000D01*
X83101703Y91142122D01*
X82492761Y90735239D01*
X80366601Y88609079D01*
X78264000Y88609079D01*
X77846359Y88530494D01*
X77462781Y88283669D01*
X77260075Y87987000D01*
X76200000Y87987000D01*
X75577374Y87863152D01*
X75049537Y87510463D01*
X74510074Y86971000D01*
X72331250Y86971000D01*
X72477000Y87703738D01*
X72477000Y88826262D01*
X72277032Y89831571D01*
X71707570Y90683832D01*
X70855309Y91253294D01*
X69850000Y91453262D01*
X68844691Y91253294D01*
X67992430Y90683832D01*
X67630204Y90141722D01*
X66938280Y90142325D01*
X66248154Y89857171D01*
X66040100Y89649480D01*
X65834624Y89855316D01*
X65144996Y90141674D01*
X64398280Y90142325D01*
X63708154Y89857171D01*
X63570719Y89719976D01*
X63184886Y90103483D01*
X62958310Y90239735D01*
X62703000Y90168607D01*
X62703000Y88738000D01*
X62723000Y88738000D01*
X62723000Y87792000D01*
X62703000Y87792000D01*
X62703000Y87772000D01*
X61757000Y87772000D01*
X61757000Y87792000D01*
X60163000Y87792000D01*
X60163000Y87772000D01*
X59217000Y87772000D01*
X59217000Y87792000D01*
X59197000Y87792000D01*
X59197000Y88738000D01*
X59217000Y88738000D01*
X59217000Y90168607D01*
X60163000Y90168607D01*
X60163000Y88738000D01*
X61757000Y88738000D01*
X61757000Y90168607D01*
X61501690Y90239735D01*
X61275114Y90103483D01*
X60960000Y89790268D01*
X60644886Y90103483D01*
X60418310Y90239735D01*
X60163000Y90168607D01*
X59217000Y90168607D01*
X58961690Y90239735D01*
X58735114Y90103483D01*
X58349505Y89720199D01*
X58214624Y89855316D01*
X57524996Y90141674D01*
X56778280Y90142325D01*
X56088154Y89857171D01*
X55880100Y89649480D01*
X55674624Y89855316D01*
X54984996Y90141674D01*
X54238280Y90142325D01*
X53548154Y89857171D01*
X53340100Y89649480D01*
X53134624Y89855316D01*
X52444996Y90141674D01*
X51698280Y90142325D01*
X51008154Y89857171D01*
X50479684Y89329624D01*
X50193326Y88639996D01*
X50192675Y87893280D01*
X50477829Y87203154D01*
X51005376Y86674684D01*
X51695004Y86388326D01*
X52441720Y86387675D01*
X53131846Y86672829D01*
X53339900Y86880520D01*
X53545376Y86674684D01*
X54235004Y86388326D01*
X54981720Y86387675D01*
X55671846Y86672829D01*
X55879900Y86880520D01*
X56085376Y86674684D01*
X56775004Y86388326D01*
X57521720Y86387675D01*
X57775685Y86492611D01*
X55999537Y84716463D01*
X55646848Y84188626D01*
X55523000Y83566000D01*
X55523000Y83113345D01*
X55462236Y83153946D01*
X54610000Y83323466D01*
X53757764Y83153946D01*
X53340000Y82874805D01*
X52922236Y83153946D01*
X52070000Y83323466D01*
X51217764Y83153946D01*
X50495273Y82671193D01*
X50012520Y81948702D01*
X49901079Y81388449D01*
X49901079Y81764000D01*
X49822494Y82181641D01*
X49575669Y82565219D01*
X49199056Y82822548D01*
X48752000Y82913079D01*
X46752000Y82913079D01*
X46334359Y82834494D01*
X45950781Y82587669D01*
X45947724Y82583195D01*
X45709309Y82742498D01*
X44704000Y82942466D01*
X43698691Y82742498D01*
X42846430Y82173036D01*
X42601400Y81806322D01*
X41989086Y82226373D01*
X41940865Y82246319D01*
X41621000Y82182811D01*
X41621000Y80737000D01*
X41641000Y80737000D01*
X41641000Y79791000D01*
X41621000Y79791000D01*
X41621000Y78345189D01*
X41940865Y78281681D01*
X41989086Y78301627D01*
X42601400Y78721678D01*
X42846430Y78354964D01*
X43335000Y78028512D01*
X43335000Y74771000D01*
X43049750Y74771000D01*
X42891000Y74612250D01*
X42891000Y72609000D01*
X42911000Y72609000D01*
X42911000Y71663000D01*
X42891000Y71663000D01*
X42891000Y69659750D01*
X43049750Y69501000D01*
X43335000Y69501000D01*
X43335000Y67564000D01*
X43465212Y66909378D01*
X43477878Y66845703D01*
X43884761Y66236761D01*
X54552760Y55568761D01*
X55066669Y55225378D01*
X55161703Y55161878D01*
X55701940Y55054418D01*
X54848522Y54201000D01*
X54311639Y54201000D01*
X54088385Y54535123D01*
X53073913Y55212971D01*
X51877262Y55451000D01*
X51754738Y55451000D01*
X50558087Y55212971D01*
X49543615Y54535123D01*
X48865767Y53520651D01*
X48747474Y52925952D01*
X41090761Y45269239D01*
X40683878Y44660297D01*
X40541000Y43942000D01*
X40541000Y43739605D01*
X40360520Y43469498D01*
X40191000Y42617262D01*
X40191000Y40694738D01*
X40360520Y39842502D01*
X40541000Y39572395D01*
X40541000Y37338000D01*
X40591524Y37084000D01*
X40683878Y36619703D01*
X41090761Y36010761D01*
X41344760Y35756761D01*
X41953703Y35349878D01*
X42672000Y35207000D01*
X69088000Y35207000D01*
X69806297Y35349878D01*
X70415239Y35756761D01*
X80067239Y45408760D01*
X80474122Y46017703D01*
X80593781Y46619272D01*
X80617000Y46736000D01*
X80617000Y47747335D01*
X81026131Y48155752D01*
X81435000Y47746169D01*
X81435000Y44465479D01*
X65262522Y28293000D01*
X34802665Y28293000D01*
X34031616Y29065396D01*
X32882728Y29542456D01*
X31785064Y29543414D01*
X29309000Y32019478D01*
X29309000Y41024250D01*
X29623000Y41024250D01*
X29623000Y39529690D01*
X29719673Y39296301D01*
X29898302Y39117673D01*
X30131691Y39021000D01*
X31626250Y39021000D01*
X31785000Y39179750D01*
X31785000Y41183000D01*
X32731000Y41183000D01*
X32731000Y39179750D01*
X32889750Y39021000D01*
X34384309Y39021000D01*
X34617698Y39117673D01*
X34796327Y39296301D01*
X34893000Y39529690D01*
X34893000Y41024250D01*
X34734250Y41183000D01*
X32731000Y41183000D01*
X31785000Y41183000D01*
X29781750Y41183000D01*
X29623000Y41024250D01*
X29309000Y41024250D01*
X29309000Y43782310D01*
X29623000Y43782310D01*
X29623000Y42287750D01*
X29781750Y42129000D01*
X31785000Y42129000D01*
X31785000Y44132250D01*
X32731000Y44132250D01*
X32731000Y42129000D01*
X34734250Y42129000D01*
X34893000Y42287750D01*
X34893000Y43782310D01*
X34796327Y44015699D01*
X34617698Y44194327D01*
X34384309Y44291000D01*
X32889750Y44291000D01*
X32731000Y44132250D01*
X31785000Y44132250D01*
X31626250Y44291000D01*
X30131691Y44291000D01*
X29898302Y44194327D01*
X29719673Y44015699D01*
X29623000Y43782310D01*
X29309000Y43782310D01*
X29309000Y52562522D01*
X31765479Y55019000D01*
X34699000Y55019000D01*
X34699000Y54868665D01*
X33926604Y54097616D01*
X33449544Y52948728D01*
X33448458Y51704730D01*
X33923512Y50555011D01*
X34693752Y49783426D01*
X33926604Y49017616D01*
X33449544Y47868728D01*
X33448458Y46624730D01*
X33923512Y45475011D01*
X34802384Y44594604D01*
X35951272Y44117544D01*
X37195270Y44116458D01*
X38344989Y44591512D01*
X39225396Y45470384D01*
X39702456Y46619272D01*
X39703542Y47863270D01*
X39228488Y49012989D01*
X38458248Y49784574D01*
X39225396Y50550384D01*
X39702456Y51699272D01*
X39703542Y52943270D01*
X39228488Y54092989D01*
X38453000Y54869831D01*
X38453000Y55019000D01*
X39873335Y55019000D01*
X40644384Y54246604D01*
X41793272Y53769544D01*
X43037270Y53768458D01*
X44186989Y54243512D01*
X45067396Y55122384D01*
X45544456Y56271272D01*
X45545542Y57515270D01*
X45070488Y58664989D01*
X44191616Y59545396D01*
X43042728Y60022456D01*
X41798730Y60023542D01*
X40649011Y59548488D01*
X39872169Y58773000D01*
X36929000Y58773000D01*
X36929000Y64804921D01*
X36952000Y64804921D01*
X37369641Y64883506D01*
X37753219Y65130331D01*
X38010548Y65506944D01*
X38101079Y65954000D01*
X38101079Y67954000D01*
X38022494Y68371641D01*
X37775669Y68755219D01*
X37399056Y69012548D01*
X36952000Y69103079D01*
X33152000Y69103079D01*
X32734359Y69024494D01*
X32350781Y68777669D01*
X32093452Y68401056D01*
X32002921Y67954000D01*
X32002921Y65954000D01*
X32081506Y65536359D01*
X32328331Y65152781D01*
X32704944Y64895452D01*
X33152000Y64804921D01*
X33175000Y64804921D01*
X33175000Y58773000D01*
X30988000Y58773000D01*
X30269703Y58630122D01*
X29660760Y58223239D01*
X26104761Y54667239D01*
X25697878Y54058297D01*
X25555000Y53340000D01*
X25555000Y31242000D01*
X25618351Y30923513D01*
X25697878Y30523703D01*
X26104761Y29914761D01*
X29131411Y26888111D01*
X29130458Y25796730D01*
X29605512Y24647011D01*
X30484384Y23766604D01*
X30996391Y23554000D01*
X24570000Y23554000D01*
X24570000Y74254000D01*
X30852921Y74254000D01*
X30852921Y72254000D01*
X30931506Y71836359D01*
X31178331Y71452781D01*
X31554944Y71195452D01*
X32002000Y71104921D01*
X33502000Y71104921D01*
X33916683Y71182949D01*
X34302000Y71104921D01*
X35802000Y71104921D01*
X36219641Y71183506D01*
X36603219Y71430331D01*
X36653725Y71504250D01*
X40683000Y71504250D01*
X40683000Y70009690D01*
X40779673Y69776301D01*
X40958302Y69597673D01*
X41191691Y69501000D01*
X41786250Y69501000D01*
X41945000Y69659750D01*
X41945000Y71663000D01*
X40841750Y71663000D01*
X40683000Y71504250D01*
X36653725Y71504250D01*
X36732131Y71619000D01*
X36818250Y71619000D01*
X36977000Y71777750D01*
X36977000Y72781000D01*
X37727000Y72781000D01*
X37727000Y71777750D01*
X37885750Y71619000D01*
X38228310Y71619000D01*
X38461699Y71715673D01*
X38640327Y71894302D01*
X38737000Y72127691D01*
X38737000Y72622250D01*
X38578250Y72781000D01*
X37727000Y72781000D01*
X36977000Y72781000D01*
X36951079Y72781000D01*
X36951079Y73727000D01*
X36977000Y73727000D01*
X36977000Y74730250D01*
X37727000Y74730250D01*
X37727000Y73727000D01*
X38578250Y73727000D01*
X38737000Y73885750D01*
X38737000Y74262310D01*
X40683000Y74262310D01*
X40683000Y72767750D01*
X40841750Y72609000D01*
X41945000Y72609000D01*
X41945000Y74612250D01*
X41786250Y74771000D01*
X41191691Y74771000D01*
X40958302Y74674327D01*
X40779673Y74495699D01*
X40683000Y74262310D01*
X38737000Y74262310D01*
X38737000Y74380309D01*
X38640327Y74613698D01*
X38461699Y74792327D01*
X38228310Y74889000D01*
X37885750Y74889000D01*
X37727000Y74730250D01*
X36977000Y74730250D01*
X36818250Y74889000D01*
X36732628Y74889000D01*
X36625669Y75055219D01*
X36249056Y75312548D01*
X35802000Y75403079D01*
X35385557Y75403079D01*
X37571992Y77589514D01*
X37592000Y77585534D01*
X38597309Y77785502D01*
X39449570Y78354964D01*
X39694600Y78721678D01*
X40306914Y78301627D01*
X40355135Y78281681D01*
X40675000Y78345189D01*
X40675000Y79791000D01*
X40655000Y79791000D01*
X40655000Y80737000D01*
X40675000Y80737000D01*
X40675000Y82182811D01*
X40355135Y82246319D01*
X40306914Y82226373D01*
X39694600Y81806322D01*
X39449570Y82173036D01*
X38597309Y82742498D01*
X37592000Y82942466D01*
X36586691Y82742498D01*
X35734430Y82173036D01*
X35164968Y81320775D01*
X34965000Y80315466D01*
X34965000Y80291479D01*
X31424761Y76751239D01*
X31017878Y76142297D01*
X30875000Y75424000D01*
X30875000Y74363029D01*
X30852921Y74254000D01*
X24570000Y74254000D01*
X24570000Y86052218D01*
X24964190Y85657340D01*
X26480487Y85027718D01*
X28122310Y85026285D01*
X29639704Y85653259D01*
X30801660Y86813190D01*
X31431282Y88329487D01*
X31432715Y89971310D01*
X30805741Y91488704D01*
X29645810Y92650660D01*
X28129513Y93280282D01*
X26487690Y93281715D01*
X24970296Y92654741D01*
X24570000Y92255143D01*
X24570000Y93286000D01*
X104462000Y93286000D01*
X104462000Y33073560D01*
M02*
