PCBNEW-LibModule-V1   12/07/2017-08:48:15
$INDEX
-POWERDIP-16
$EndINDEX
$MODULE -POWERDIP-16
Po 0 0 0 15 00200000 00000000 ~~
Li -POWERDIP-16
Cd 
Kw 
Sc 00000000
Op 0 0 0
At VIRTUAL
DS -2950 480 -50 480 60 21
DS -50 -429 -50 -570 60 21
DS -50 -7480 -2950 -7480 60 21
DS -2950 -6570 -2950 -6430 60 21
DS -2950 -5570 -2950 -5430 60 21
DS -2950 -4570 -2950 -4430 60 21
DS -2950 -3570 -2950 -3430 60 21
DS -2950 -2570 -2950 -2430 60 21
DS -2950 -1570 -2950 -1429 60 21
DS -2950 -570 -2950 -429 60 21
DS -50 -1429 -50 -1570 60 21
DS -50 -2430 -50 -2570 60 21
DS -50 -3430 -50 -3570 60 21
DS -50 -4430 -50 -4570 60 21
DS -50 -5430 -50 -5570 60 21
DS -50 -6430 -50 -6570 60 21
DS -2900 -6840 -2900 -7160 60 24
DS -2900 -7160 -3160 -7160 60 24
DS -3160 -7160 -3160 -6840 60 24
DS -3160 -6840 -2900 -6840 60 24
DS -2900 -5840 -2900 -6160 60 24
DS -2900 -6160 -3160 -6160 60 24
DS -3160 -6160 -3160 -5840 60 24
DS -3160 -5840 -2900 -5840 60 24
DS -2900 -4840 -2900 -5160 60 24
DS -2900 -5160 -3160 -5160 60 24
DS -3160 -5160 -3160 -4840 60 24
DS -3160 -4840 -2900 -4840 60 24
DS -2900 -3840 -2900 -4160 60 24
DS -2900 -4160 -3160 -4160 60 24
DS -3160 -4160 -3160 -3840 60 24
DS -3160 -3840 -2900 -3840 60 24
DS -2900 -2839 -2900 -3160 60 24
DS -2900 -3160 -3160 -3160 60 24
DS -3160 -3160 -3160 -2839 60 24
DS -3160 -2839 -2900 -2839 60 24
DS -2900 -1840 -2900 -2160 60 24
DS -2900 -2160 -3160 -2160 60 24
DS -3160 -2160 -3160 -1840 60 24
DS -3160 -1840 -2900 -1840 60 24
DS -2900 -840 -2900 -1160 60 24
DS -2900 -1160 -3160 -1160 60 24
DS -3160 -1160 -3160 -840 60 24
DS -3160 -840 -2900 -840 60 24
DS -2900 160 -2900 -160 60 24
DS -2900 -160 -3160 -160 60 24
DS -3160 -160 -3160 160 60 24
DS -3160 160 -2900 160 60 24
DS -100 -160 -100 160 60 24
DS -100 160 160 160 60 24
DS 160 160 160 -160 60 24
DS 160 -160 -100 -160 60 24
DS -100 -1160 -100 -840 60 24
DS -100 -840 160 -840 60 24
DS 160 -840 160 -1160 60 24
DS 160 -1160 -100 -1160 60 24
DS -100 -2160 -100 -1840 60 24
DS -100 -1840 160 -1840 60 24
DS 160 -1840 160 -2160 60 24
DS 160 -2160 -100 -2160 60 24
DS -100 -3160 -100 -2839 60 24
DS -100 -2839 160 -2839 60 24
DS 160 -2839 160 -3160 60 24
DS 160 -3160 -100 -3160 60 24
DS -100 -4160 -100 -3840 60 24
DS -100 -3840 160 -3840 60 24
DS 160 -3840 160 -4160 60 24
DS 160 -4160 -100 -4160 60 24
DS -100 -5160 -100 -4840 60 24
DS -100 -4840 160 -4840 60 24
DS 160 -4840 160 -5160 60 24
DS 160 -5160 -100 -5160 60 24
DS -100 -6160 -100 -5840 60 24
DS -100 -5840 160 -5840 60 24
DS 160 -5840 160 -6160 60 24
DS 160 -6160 -100 -6160 60 24
DS -100 -7160 -100 -6840 60 24
DS -100 -6840 160 -6840 60 24
DS 160 -6840 160 -7160 60 24
DS 160 -7160 -100 -7160 60 24
DS -2900 440 -100 440 60 24
DS -100 440 -100 -7440 60 24
DS -100 -7440 -1380 -7440 60 24
DS -1380 -7440 -1620 -7440 60 24
DS -1620 -7440 -2900 -7440 60 24
DS -2900 -7440 -2900 440 60 24
DA -1500 -7440 -1380 -7440 5400 60 24 
T0 -1540 -3500 500 500 0 30 N V 21 N ">NAME"
T2 -2980 -7600 500 500 0 30 N V 21 N "*"
T2 -2780 -7000 500 500 0 30 N V 24 N "*"
$PAD
Sh "1" R 600 600 0 0 0
Dr 320 0 0 
At STD N 00CCFFFF
Ne 0 ""
Po -3000 -7000 
$EndPAD
$PAD
Sh "2" C 600 600 0 0 0
Dr 320 0 0 
At STD N 00CCFFFF
Ne 0 ""
Po -3000 -6000 
$EndPAD
$PAD
Sh "3" C 600 600 0 0 0
Dr 320 0 0 
At STD N 00CCFFFF
Ne 0 ""
Po -3000 -5000 
$EndPAD
$PAD
Sh "4" C 600 600 0 0 0
Dr 320 0 0 
At STD N 00CCFFFF
Ne 0 ""
Po -3000 -4000 
$EndPAD
$PAD
Sh "5" C 600 600 0 0 0
Dr 320 0 0 
At STD N 00CCFFFF
Ne 0 ""
Po -3000 -3000 
$EndPAD
$PAD
Sh "6" C 600 600 0 0 0
Dr 320 0 0 
At STD N 00CCFFFF
Ne 0 ""
Po -3000 -2000 
$EndPAD
$PAD
Sh "7" C 600 600 0 0 0
Dr 320 0 0 
At STD N 00CCFFFF
Ne 0 ""
Po -3000 -1000 
$EndPAD
$PAD
Sh "8" C 600 600 0 0 0
Dr 320 0 0 
At STD N 00CCFFFF
Ne 0 ""
Po -3000 0 
$EndPAD
$PAD
Sh "9" C 600 600 0 0 0
Dr 320 0 0 
At STD N 00CCFFFF
Ne 0 ""
Po 0 0 
$EndPAD
$PAD
Sh "10" C 600 600 0 0 0
Dr 320 0 0 
At STD N 00CCFFFF
Ne 0 ""
Po 0 -1000 
$EndPAD
$PAD
Sh "11" C 600 600 0 0 0
Dr 320 0 0 
At STD N 00CCFFFF
Ne 0 ""
Po 0 -2000 
$EndPAD
$PAD
Sh "12" C 600 600 0 0 0
Dr 320 0 0 
At STD N 00CCFFFF
Ne 0 ""
Po 0 -3000 
$EndPAD
$PAD
Sh "13" C 600 600 0 0 0
Dr 320 0 0 
At STD N 00CCFFFF
Ne 0 ""
Po 0 -4000 
$EndPAD
$PAD
Sh "14" C 600 600 0 0 0
Dr 320 0 0 
At STD N 00CCFFFF
Ne 0 ""
Po 0 -5000 
$EndPAD
$PAD
Sh "15" C 600 600 0 0 0
Dr 320 0 0 
At STD N 00CCFFFF
Ne 0 ""
Po 0 -6000 
$EndPAD
$PAD
Sh "16" C 600 600 0 0 0
Dr 320 0 0 
At STD N 00CCFFFF
Ne 0 ""
Po 0 -7000 
$EndPAD
$EndMODULE POWERDIP-16
$EndLIBRARY
