G04 #@! TF.FileFunction,Copper,L1,Top,Signal*
%FSLAX46Y46*%
G04 Gerber Fmt 4.6, Leading zero omitted, Abs format (unit mm)*
G04 Created by KiCad (PCBNEW 4.0.6) date 07/20/17 11:27:32*
%MOMM*%
%LPD*%
G01*
G04 APERTURE LIST*
%ADD10C,0.200000*%
%ADD11R,4.000000X4.000000*%
%ADD12C,0.250000*%
G04 APERTURE END LIST*
D10*
D11*
X29210000Y24130000D03*
X29210000Y29845000D03*
D12*
X29210000Y25260300D02*
X29121100Y25171400D01*
M02*
